00000000000111211000000000000000
00000000000111111100000000000000
00000000000000111100000000000000
00000000000000011110000000000000
00000000000000011110000000000000
00000000000000011110000000111110
00000000000000011110000001111111
00000000000000011111000011111111
00000000000000011111000011111100
00000000000000000011110011111000
01111100000000000001111101111000
01111100000000000001111100110000
01111100000000000001111111110000
01111100000000000001111411100000
00111100000000000011111111100000
00111110000000000111111100000000
00011111000000111111110000000000
00011111100001111111100000000000
00001111100011111111100000000000
00001111111111111100000000000000
00000011114111111000000000000000
00000011111111100000000000000000
00000001111100000000000000000000
00000000333000000000000000000000